[
  {
    "map": [
      {
        "id": 1,
        "version": "MINECRAFT_1_8"
      },
      {
        "id": 32,
        "version": "MINECRAFT_1_13"
      },
      {
        "id": 34,
        "version": "MINECRAFT_1_14"
      },
      {
        "id": 35,
        "version": "MINECRAFT_1_15"
      }
    ],
    "enum": "ITEM"
  },
  {
    "map": [
      {
        "id": 2,
        "version": "MINECRAFT_1_8"
      },
      {
        "id": 22,
        "version": "MINECRAFT_1_13"
      },
      {
        "id": 23,
        "version": "MINECRAFT_1_14"
      },
      {
        "id": 24,
        "version": "MINECRAFT_1_15"
      }
    ],
    "enum": "EXPERIENCE_ORB"
  },
  {
    "map": [
      {
        "id": 3,
        "version": "MINECRAFT_1_8"
      },
      {
        "id": 0,
        "version": "MINECRAFT_1_13"
      }
    ],
    "enum": "AREA_EFFECT_CLOUD"
  },
  {
    "map": [
      {
        "id": 4,
        "version": "MINECRAFT_1_11"
      },
      {
        "id": 15,
        "version": "MINECRAFT_1_13"
      },
      {
        "id": 16,
        "version": "MINECRAFT_1_14"
      },
      {
        "id": 17,
        "version": "MINECRAFT_1_15"
      }
    ],
    "enum": "ELDER_GUARDIAN"
  },
  {
    "map": [
      {
        "id": 5,
        "version": "MINECRAFT_1_11"
      },
      {
        "id": 84,
        "version": "MINECRAFT_1_13"
      },
      {
        "id": 91,
        "version": "MINECRAFT_1_14"
      },
      {
        "id": 92,
        "version": "MINECRAFT_1_15"
      }
    ],
    "enum": "WITHER_SKELETON"
  },
  {
    "map": [
      {
        "id": 6,
        "version": "MINECRAFT_1_11"
      },
      {
        "id": 71,
        "version": "MINECRAFT_1_13"
      },
      {
        "id": 74,
        "version": "MINECRAFT_1_14"
      },
      {
        "id": 75,
        "version": "MINECRAFT_1_15"
      }
    ],
    "enum": "STRAY"
  },
  {
    "map": [
      {
        "id": 7,
        "version": "MINECRAFT_1_8"
      },
      {
        "id": 74,
        "version": "MINECRAFT_1_13"
      },
      {
        "id": 78,
        "version": "MINECRAFT_1_14"
      },
      {
        "id": 79,
        "version": "MINECRAFT_1_15"
      }
    ],
    "enum": "THROWN_EGG"
  },
  {
    "map": [
      {
        "id": 8,
        "version": "MINECRAFT_1_8"
      },
      {
        "id": 35,
        "version": "MINECRAFT_1_13"
      },
      {
        "id": 37,
        "version": "MINECRAFT_1_14"
      },
      {
        "id": 38,
        "version": "MINECRAFT_1_15"
      }
    ],
    "enum": "LEASH_KNOT"
  },
  {
    "map": [
      {
        "id": 9,
        "version": "MINECRAFT_1_8"
      },
      {
        "id": 49,
        "version": "MINECRAFT_1_13"
      },
      {
        "id": 51,
        "version": "MINECRAFT_1_14"
      },
      {
        "id": 52,
        "version": "MINECRAFT_1_15"
      }
    ],
    "enum": "PAINTING"
  },
  {
    "map": [
      {
        "id": 10,
        "version": "MINECRAFT_1_8"
      },
      {
        "id": 2,
        "version": "MINECRAFT_1_13"
      }
    ],
    "enum": "ARROW"
  },
  {
    "map": [
      {
        "id": 11,
        "version": "MINECRAFT_1_8"
      },
      {
        "id": 67,
        "version": "MINECRAFT_1_13"
      },
      {
        "id": 70,
        "version": "MINECRAFT_1_14"
      },
      {
        "id": 71,
        "version": "MINECRAFT_1_15"
      }
    ],
    "enum": "SNOWBALL"
  },
  {
    "map": [
      {
        "id": 12,
        "version": "MINECRAFT_1_8"
      },
      {
        "id": 34,
        "version": "MINECRAFT_1_13"
      },
      {
        "id": 36,
        "version": "MINECRAFT_1_14"
      },
      {
        "id": 37,
        "version": "MINECRAFT_1_15"
      }
    ],
    "enum": "FIREBALL"
  },
  {
    "map": [
      {
        "id": 13,
        "version": "MINECRAFT_1_8"
      },
      {
        "id": 65,
        "version": "MINECRAFT_1_13"
      },
      {
        "id": 68,
        "version": "MINECRAFT_1_14"
      },
      {
        "id": 69,
        "version": "MINECRAFT_1_15"
      }
    ],
    "enum": "SMALL_FIREBALL"
  },
  {
    "map": [
      {
        "id": 14,
        "version": "MINECRAFT_1_8"
      },
      {
        "id": 75,
        "version": "MINECRAFT_1_13"
      },
      {
        "id": 79,
        "version": "MINECRAFT_1_14"
      },
      {
        "id": 80,
        "version": "MINECRAFT_1_15"
      }
    ],
    "enum": "THROWN_ENDERPEARL"
  },
  {
    "map": [
      {
        "id": 15,
        "version": "MINECRAFT_1_8"
      },
      {
        "id": 23,
        "version": "MINECRAFT_1_13"
      },
      {
        "id": 24,
        "version": "MINECRAFT_1_14"
      },
      {
        "id": 25,
        "version": "MINECRAFT_1_15"
      }
    ],
    "enum": "EYE_OF_ENDER"
  },
  {
    "map": [
      {
        "id": 16,
        "version": "MINECRAFT_1_8"
      },
      {
        "id": 77,
        "version": "MINECRAFT_1_13"
      },
      {
        "id": 81,
        "version": "MINECRAFT_1_14"
      },
      {
        "id": 82,
        "version": "MINECRAFT_1_15"
      }
    ],
    "enum": "THROWN_POTION"
  },
  {
    "map": [
      {
        "id": 17,
        "version": "MINECRAFT_1_8"
      },
      {
        "id": 76,
        "version": "MINECRAFT_1_13"
      },
      {
        "id": 80,
        "version": "MINECRAFT_1_14"
      },
      {
        "id": 81,
        "version": "MINECRAFT_1_15"
      }
    ],
    "enum": "THROWN_EXP_BOTTLE"
  },
  {
    "map": [
      {
        "id": 18,
        "version": "MINECRAFT_1_8"
      },
      {
        "id": 33,
        "version": "MINECRAFT_1_13"
      },
      {
        "id": 35,
        "version": "MINECRAFT_1_14"
      },
      {
        "id": 36,
        "version": "MINECRAFT_1_15"
      }
    ],
    "enum": "ITEM_FRAME"
  },
  {
    "map": [
      {
        "id": 19,
        "version": "MINECRAFT_1_8"
      },
      {
        "id": 85,
        "version": "MINECRAFT_1_13"
      },
      {
        "id": 92,
        "version": "MINECRAFT_1_14"
      },
      {
        "id": 93,
        "version": "MINECRAFT_1_15"
      }
    ],
    "enum": "WITHER_SKULL"
  },
  {
    "map": [
      {
        "id": 20,
        "version": "MINECRAFT_1_8"
      },
      {
        "id": 55,
        "version": "MINECRAFT_1_13"
      },
      {
        "id": 58,
        "version": "MINECRAFT_1_14"
      },
      {
        "id": 59,
        "version": "MINECRAFT_1_15"
      }
    ],
    "enum": "PRIMED_TNT"
  },
  {
    "map": [
      {
        "id": 21,
        "version": "MINECRAFT_1_8"
      },
      {
        "id": 24,
        "version": "MINECRAFT_1_13"
      },
      {
        "id": 25,
        "version": "MINECRAFT_1_14"
      },
      {
        "id": 26,
        "version": "MINECRAFT_1_15"
      }
    ],
    "enum": "FALLING_BLOCK"
  },
  {
    "map": [
      {
        "id": 22,
        "version": "MINECRAFT_1_8"
      },
      {
        "id": 25,
        "version": "MINECRAFT_1_13"
      },
      {
        "id": 26,
        "version": "MINECRAFT_1_14"
      },
      {
        "id": 27,
        "version": "MINECRAFT_1_15"
      }
    ],
    "enum": "FIREWORK_ROCKET"
  },
  {
    "map": [
      {
        "id": 23,
        "version": "MINECRAFT_1_11"
      },
      {
        "id": 30,
        "version": "MINECRAFT_1_13"
      },
      {
        "id": 32,
        "version": "MINECRAFT_1_14"
      },
      {
        "id": 33,
        "version": "MINECRAFT_1_15"
      }
    ],
    "enum": "HUSK"
  },
  {
    "map": [
      {
        "id": 24,
        "version": "MINECRAFT_1_8"
      },
      {
        "id": 68,
        "version": "MINECRAFT_1_13"
      },
      {
        "id": 71,
        "version": "MINECRAFT_1_14"
      },
      {
        "id": 72,
        "version": "MINECRAFT_1_15"
      }
    ],
    "enum": "SPECTRAL_ARROW"
  },
  {
    "map": [
      {
        "id": 25,
        "version": "MINECRAFT_1_8"
      },
      {
        "id": 60,
        "version": "MINECRAFT_1_13"
      },
      {
        "id": 63,
        "version": "MINECRAFT_1_14"
      },
      {
        "id": 64,
        "version": "MINECRAFT_1_15"
      }
    ],
    "enum": "SHULKER_BULLET"
  },
  {
    "map": [
      {
        "id": 26,
        "version": "MINECRAFT_1_8"
      },
      {
        "id": 13,
        "version": "MINECRAFT_1_13"
      },
      {
        "id": 14,
        "version": "MINECRAFT_1_14"
      },
      {
        "id": 15,
        "version": "MINECRAFT_1_15"
      }
    ],
    "enum": "DRAGON_FIREBALL"
  },
  {
    "map": [
      {
        "id": 27,
        "version": "MINECRAFT_1_11"
      },
      {
        "id": 89,
        "version": "MINECRAFT_1_13"
      },
      {
        "id": 96,
        "version": "MINECRAFT_1_14"
      },
      {
        "id": 97,
        "version": "MINECRAFT_1_15"
      }
    ],
    "enum": "ZOMBIE_VILLAGER"
  },
  {
    "map": [
      {
        "id": 28,
        "version": "MINECRAFT_1_11"
      },
      {
        "id": 63,
        "version": "MINECRAFT_1_13"
      },
      {
        "id": 66,
        "version": "MINECRAFT_1_14"
      },
      {
        "id": 67,
        "version": "MINECRAFT_1_15"
      }
    ],
    "enum": "SKELETON_HORSE"
  },
  {
    "map": [
      {
        "id": 29,
        "version": "MINECRAFT_1_11"
      },
      {
        "id": 88,
        "version": "MINECRAFT_1_13"
      },
      {
        "id": 95,
        "version": "MINECRAFT_1_14"
      },
      {
        "id": 96,
        "version": "MINECRAFT_1_15"
      }
    ],
    "enum": "ZOMBIE_HORSE"
  },
  {
    "map": [
      {
        "id": 30,
        "version": "MINECRAFT_1_8"
      },
      {
        "id": 1,
        "version": "MINECRAFT_1_13"
      }
    ],
    "enum": "ARMOR_STAND"
  },
  {
    "map": [
      {
        "id": 31,
        "version": "MINECRAFT_1_11"
      },
      {
        "id": 11,
        "version": "MINECRAFT_1_13"
      },
      {
        "id": 12,
        "version": "MINECRAFT_1_14"
      },
      {
        "id": 13,
        "version": "MINECRAFT_1_15"
      }
    ],
    "enum": "DONKEY"
  },
  {
    "map": [
      {
        "id": 32,
        "version": "MINECRAFT_1_11"
      },
      {
        "id": 46,
        "version": "MINECRAFT_1_13"
      },
      {
        "id": 48,
        "version": "MINECRAFT_1_14"
      },
      {
        "id": 49,
        "version": "MINECRAFT_1_15"
      }
    ],
    "enum": "MULE"
  },
  {
    "map": [
      {
        "id": 33,
        "version": "MINECRAFT_1_11"
      },
      {
        "id": 20,
        "version": "MINECRAFT_1_13"
      },
      {
        "id": 21,
        "version": "MINECRAFT_1_14"
      },
      {
        "id": 22,
        "version": "MINECRAFT_1_15"
      }
    ],
    "enum": "EVOCATION_FANGS"
  },
  {
    "map": [
      {
        "id": 34,
        "version": "MINECRAFT_1_11"
      },
      {
        "id": 21,
        "version": "MINECRAFT_1_13"
      },
      {
        "id": 22,
        "version": "MINECRAFT_1_14"
      },
      {
        "id": 23,
        "version": "MINECRAFT_1_15"
      }
    ],
    "enum": "EVOCATION_ILLAGER"
  },
  {
    "map": [
      {
        "id": 35,
        "version": "MINECRAFT_1_11"
      },
      {
        "id": 78,
        "version": "MINECRAFT_1_13"
      },
      {
        "id": 83,
        "version": "MINECRAFT_1_14"
      },
      {
        "id": 84,
        "version": "MINECRAFT_1_15"
      }
    ],
    "enum": "VEX"
  },
  {
    "map": [
      {
        "id": 36,
        "version": "MINECRAFT_1_11"
      },
      {
        "id": 81,
        "version": "MINECRAFT_1_13"
      },
      {
        "id": 86,
        "version": "MINECRAFT_1_14"
      },
      {
        "id": 87,
        "version": "MINECRAFT_1_15"
      }
    ],
    "enum": "VINDICATION_ILLAGER"
  },
  {
    "map": [
      {
        "id": 37,
        "version": "MINECRAFT_1_12"
      },
      {
        "id": 31,
        "version": "MINECRAFT_1_13"
      },
      {
        "id": 33,
        "version": "MINECRAFT_1_14"
      },
      {
        "id": 34,
        "version": "MINECRAFT_1_15"
      }
    ],
    "enum": "ILLUSION_ILLAGER"
  },
  {
    "map": [
      {
        "id": 40,
        "version": "MINECRAFT_1_8"
      },
      {
        "id": 41,
        "version": "MINECRAFT_1_13"
      },
      {
        "id": 43,
        "version": "MINECRAFT_1_14"
      },
      {
        "id": 44,
        "version": "MINECRAFT_1_15"
      }
    ],
    "enum": "MINECART_COMMAND_BLOCK"
  },
  {
    "map": [
      {
        "id": 41,
        "version": "MINECRAFT_1_8"
      },
      {
        "id": 5,
        "version": "MINECRAFT_1_13"
      },
      {
        "id": 6,
        "version": "MINECRAFT_1_15"
      }
    ],
    "enum": "BOAT"
  },
  {
    "map": [
      {
        "id": 42,
        "version": "MINECRAFT_1_8"
      },
      {
        "id": 39,
        "version": "MINECRAFT_1_13"
      },
      {
        "id": 41,
        "version": "MINECRAFT_1_14"
      },
      {
        "id": 42,
        "version": "MINECRAFT_1_15"
      }
    ],
    "enum": "MINECART_RIDEABLE"
  },
  {
    "map": [
      {
        "id": 43,
        "version": "MINECRAFT_1_8"
      },
      {
        "id": 40,
        "version": "MINECRAFT_1_13"
      },
      {
        "id": 42,
        "version": "MINECRAFT_1_14"
      },
      {
        "id": 43,
        "version": "MINECRAFT_1_15"
      }
    ],
    "enum": "MINECART_CHEST"
  },
  {
    "map": [
      {
        "id": 44,
        "version": "MINECRAFT_1_8"
      },
      {
        "id": 42,
        "version": "MINECRAFT_1_13"
      },
      {
        "id": 44,
        "version": "MINECRAFT_1_14"
      },
      {
        "id": 45,
        "version": "MINECRAFT_1_15"
      }
    ],
    "enum": "MINECART_FURNACE"
  },
  {
    "map": [
      {
        "id": 45,
        "version": "MINECRAFT_1_8"
      },
      {
        "id": 47,
        "version": "MINECRAFT_1_14"
      },
      {
        "id": 48,
        "version": "MINECRAFT_1_15"
      }
    ],
    "enum": "MINECART_TNT"
  },
  {
    "map": [
      {
        "id": 46,
        "version": "MINECRAFT_1_8"
      },
      {
        "id": 43,
        "version": "MINECRAFT_1_13"
      },
      {
        "id": 45,
        "version": "MINECRAFT_1_14"
      },
      {
        "id": 46,
        "version": "MINECRAFT_1_15"
      }
    ],
    "enum": "MINECART_HOPPER"
  },
  {
    "map": [
      {
        "id": 47,
        "version": "MINECRAFT_1_8"
      },
      {
        "id": 44,
        "version": "MINECRAFT_1_13"
      },
      {
        "id": 46,
        "version": "MINECRAFT_1_14"
      },
      {
        "id": 47,
        "version": "MINECRAFT_1_15"
      }
    ],
    "enum": "MINECART_SPAWNER"
  },
  {
    "map": [
      {
        "id": 50,
        "version": "MINECRAFT_1_8"
      },
      {
        "id": 10,
        "version": "MINECRAFT_1_13"
      },
      {
        "id": 11,
        "version": "MINECRAFT_1_14"
      },
      {
        "id": 12,
        "version": "MINECRAFT_1_15"
      }
    ],
    "enum": "CREEPER"
  },
  {
    "map": [
      {
        "id": 51,
        "version": "MINECRAFT_1_8"
      },
      {
        "id": 62,
        "version": "MINECRAFT_1_13"
      },
      {
        "id": 65,
        "version": "MINECRAFT_1_14"
      },
      {
        "id": 66,
        "version": "MINECRAFT_1_15"
      }
    ],
    "enum": "SKELETON"
  },
  {
    "map": [
      {
        "id": 52,
        "version": "MINECRAFT_1_8"
      },
      {
        "id": 69,
        "version": "MINECRAFT_1_13"
      },
      {
        "id": 72,
        "version": "MINECRAFT_1_14"
      },
      {
        "id": 73,
        "version": "MINECRAFT_1_15"
      }
    ],
    "enum": "SPIDER"
  },
  {
    "map": [
      {
        "id": 53,
        "version": "MINECRAFT_1_8"
      },
      {
        "id": 27,
        "version": "MINECRAFT_1_13"
      },
      {
        "id": 29,
        "version": "MINECRAFT_1_14"
      },
      {
        "id": 30,
        "version": "MINECRAFT_1_15"
      }
    ],
    "enum": "GIANT"
  },
  {
    "map": [
      {
        "id": 54,
        "version": "MINECRAFT_1_8"
      },
      {
        "id": 87,
        "version": "MINECRAFT_1_13"
      },
      {
        "id": 94,
        "version": "MINECRAFT_1_14"
      },
      {
        "id": 95,
        "version": "MINECRAFT_1_15"
      }
    ],
    "enum": "ZOMBIE"
  },
  {
    "map": [
      {
        "id": 55,
        "version": "MINECRAFT_1_8"
      },
      {
        "id": 64,
        "version": "MINECRAFT_1_13"
      },
      {
        "id": 67,
        "version": "MINECRAFT_1_14"
      },
      {
        "id": 68,
        "version": "MINECRAFT_1_15"
      }
    ],
    "enum": "SLIME"
  },
  {
    "map": [
      {
        "id": 56,
        "version": "MINECRAFT_1_8"
      },
      {
        "id": 26,
        "version": "MINECRAFT_1_13"
      },
      {
        "id": 28,
        "version": "MINECRAFT_1_14"
      },
      {
        "id": 29,
        "version": "MINECRAFT_1_15"
      }
    ],
    "enum": "GHAST"
  },
  {
    "map": [
      {
        "id": 57,
        "version": "MINECRAFT_1_8"
      },
      {
        "id": 53,
        "version": "MINECRAFT_1_13"
      },
      {
        "id": 56,
        "version": "MINECRAFT_1_14"
      },
      {
        "id": 57,
        "version": "MINECRAFT_1_15"
      }
    ],
    "enum": "PIG_ZOMBIE"
  },
  {
    "map": [
      {
        "id": 58,
        "version": "MINECRAFT_1_8"
      },
      {
        "id": 18,
        "version": "MINECRAFT_1_13"
      },
      {
        "id": 19,
        "version": "MINECRAFT_1_14"
      },
      {
        "id": 20,
        "version": "MINECRAFT_1_15"
      }
    ],
    "enum": "ENDERMAN"
  },
  {
    "map": [
      {
        "id": 59,
        "version": "MINECRAFT_1_8"
      },
      {
        "id": 6,
        "version": "MINECRAFT_1_13"
      },
      {
        "id": 7,
        "version": "MINECRAFT_1_14"
      },
      {
        "id": 8,
        "version": "MINECRAFT_1_15"
      }
    ],
    "enum": "CAVE_SPIDER"
  },
  {
    "map": [
      {
        "id": 60,
        "version": "MINECRAFT_1_8"
      },
      {
        "id": 61,
        "version": "MINECRAFT_1_13"
      },
      {
        "id": 64,
        "version": "MINECRAFT_1_14"
      },
      {
        "id": 65,
        "version": "MINECRAFT_1_15"
      }
    ],
    "enum": "SILVERFISH"
  },
  {
    "map": [
      {
        "id": 61,
        "version": "MINECRAFT_1_8"
      },
      {
        "id": 4,
        "version": "MINECRAFT_1_13"
      },
      {
        "id": 5,
        "version": "MINECRAFT_1_15"
      }
    ],
    "enum": "BLAZE"
  },
  {
    "map": [
      {
        "id": 62,
        "version": "MINECRAFT_1_8"
      },
      {
        "id": 38,
        "version": "MINECRAFT_1_13"
      },
      {
        "id": 40,
        "version": "MINECRAFT_1_14"
      },
      {
        "id": 41,
        "version": "MINECRAFT_1_15"
      }
    ],
    "enum": "LAVA_SLIME"
  },
  {
    "map": [
      {
        "id": 63,
        "version": "MINECRAFT_1_8"
      },
      {
        "id": 17,
        "version": "MINECRAFT_1_13"
      },
      {
        "id": 18,
        "version": "MINECRAFT_1_14"
      },
      {
        "id": 19,
        "version": "MINECRAFT_1_15"
      }
    ],
    "enum": "ENDER_DRAGON"
  },
  {
    "map": [
      {
        "id": 64,
        "version": "MINECRAFT_1_8"
      },
      {
        "id": 83,
        "version": "MINECRAFT_1_13"
      },
      {
        "id": 90,
        "version": "MINECRAFT_1_14"
      },
      {
        "id": 91,
        "version": "MINECRAFT_1_15"
      }
    ],
    "enum": "WITHER"
  },
  {
    "map": [
      {
        "id": 65,
        "version": "MINECRAFT_1_8"
      },
      {
        "id": 3,
        "version": "MINECRAFT_1_13"
      }
    ],
    "enum": "BAT"
  },
  {
    "map": [
      {
        "id": 66,
        "version": "MINECRAFT_1_8"
      },
      {
        "id": 82,
        "version": "MINECRAFT_1_13"
      },
      {
        "id": 89,
        "version": "MINECRAFT_1_14"
      },
      {
        "id": 90,
        "version": "MINECRAFT_1_15"
      }
    ],
    "enum": "WITCH"
  },
  {
    "map": [
      {
        "id": 67,
        "version": "MINECRAFT_1_8"
      },
      {
        "id": 19,
        "version": "MINECRAFT_1_13"
      },
      {
        "id": 20,
        "version": "MINECRAFT_1_14"
      },
      {
        "id": 21,
        "version": "MINECRAFT_1_15"
      }
    ],
    "enum": "ENDERMITE"
  },
  {
    "map": [
      {
        "id": 68,
        "version": "MINECRAFT_1_8"
      },
      {
        "id": 28,
        "version": "MINECRAFT_1_13"
      },
      {
        "id": 30,
        "version": "MINECRAFT_1_14"
      },
      {
        "id": 31,
        "version": "MINECRAFT_1_15"
      }
    ],
    "enum": "GUARDIAN"
  },
  {
    "map": [
      {
        "id": 69,
        "version": "MINECRAFT_1_8"
      },
      {
        "id": 59,
        "version": "MINECRAFT_1_13"
      },
      {
        "id": 62,
        "version": "MINECRAFT_1_14"
      },
      {
        "id": 63,
        "version": "MINECRAFT_1_15"
      }
    ],
    "enum": "SHULKER"
  },
  {
    "map": [
      {
        "id": 90,
        "version": "MINECRAFT_1_8"
      },
      {
        "id": 51,
        "version": "MINECRAFT_1_13"
      },
      {
        "id": 54,
        "version": "MINECRAFT_1_14"
      },
      {
        "id": 55,
        "version": "MINECRAFT_1_15"
      }
    ],
    "enum": "PIG"
  },
  {
    "map": [
      {
        "id": 91,
        "version": "MINECRAFT_1_8"
      },
      {
        "id": 58,
        "version": "MINECRAFT_1_13"
      },
      {
        "id": 61,
        "version": "MINECRAFT_1_14"
      },
      {
        "id": 62,
        "version": "MINECRAFT_1_15"
      }
    ],
    "enum": "SHEEP"
  },
  {
    "map": [
      {
        "id": 92,
        "version": "MINECRAFT_1_8"
      },
      {
        "id": 9,
        "version": "MINECRAFT_1_13"
      },
      {
        "id": 10,
        "version": "MINECRAFT_1_14"
      },
      {
        "id": 11,
        "version": "MINECRAFT_1_15"
      }
    ],
    "enum": "COW"
  },
  {
    "map": [
      {
        "id": 93,
        "version": "MINECRAFT_1_8"
      },
      {
        "id": 7,
        "version": "MINECRAFT_1_13"
      },
      {
        "id": 8,
        "version": "MINECRAFT_1_14"
      },
      {
        "id": 9,
        "version": "MINECRAFT_1_15"
      }
    ],
    "enum": "CHICKEN"
  },
  {
    "map": [
      {
        "id": 94,
        "version": "MINECRAFT_1_8"
      },
      {
        "id": 70,
        "version": "MINECRAFT_1_13"
      },
      {
        "id": 73,
        "version": "MINECRAFT_1_14"
      },
      {
        "id": 74,
        "version": "MINECRAFT_1_15"
      }
    ],
    "enum": "SQUID"
  },
  {
    "map": [
      {
        "id": 95,
        "version": "MINECRAFT_1_8"
      },
      {
        "id": 86,
        "version": "MINECRAFT_1_13"
      },
      {
        "id": 93,
        "version": "MINECRAFT_1_14"
      },
      {
        "id": 94,
        "version": "MINECRAFT_1_15"
      }
    ],
    "enum": "WOLF"
  },
  {
    "map": [
      {
        "id": 96,
        "version": "MINECRAFT_1_8"
      },
      {
        "id": 47,
        "version": "MINECRAFT_1_13"
      },
      {
        "id": 49,
        "version": "MINECRAFT_1_14"
      },
      {
        "id": 50,
        "version": "MINECRAFT_1_15"
      }
    ],
    "enum": "MUSHROOM_COW"
  },
  {
    "map": [
      {
        "id": 97,
        "version": "MINECRAFT_1_8"
      },
      {
        "id": 66,
        "version": "MINECRAFT_1_13"
      },
      {
        "id": 69,
        "version": "MINECRAFT_1_14"
      },
      {
        "id": 70,
        "version": "MINECRAFT_1_15"
      }
    ],
    "enum": "SNOWMAN"
  },
  {
    "map": [
      {
        "id": 98,
        "version": "MINECRAFT_1_8"
      },
      {
        "id": 48,
        "version": "MINECRAFT_1_13"
      },
      {
        "id": 50,
        "version": "MINECRAFT_1_14"
      },
      {
        "id": 51,
        "version": "MINECRAFT_1_15"
      }
    ],
    "enum": "OCELOT"
  },
  {
    "map": [
      {
        "id": 99,
        "version": "MINECRAFT_1_8"
      },
      {
        "id": 80,
        "version": "MINECRAFT_1_13"
      },
      {
        "id": 85,
        "version": "MINECRAFT_1_14"
      },
      {
        "id": 86,
        "version": "MINECRAFT_1_15"
      }
    ],
    "enum": "IRON_GOLEM"
  },
  {
    "map": [
      {
        "id": 100,
        "version": "MINECRAFT_1_8"
      },
      {
        "id": 29,
        "version": "MINECRAFT_1_13"
      },
      {
        "id": 31,
        "version": "MINECRAFT_1_14"
      },
      {
        "id": 32,
        "version": "MINECRAFT_1_15"
      }
    ],
    "enum": "HORSE"
  },
  {
    "map": [
      {
        "id": 101,
        "version": "MINECRAFT_1_8"
      },
      {
        "id": 56,
        "version": "MINECRAFT_1_13"
      },
      {
        "id": 59,
        "version": "MINECRAFT_1_14"
      },
      {
        "id": 60,
        "version": "MINECRAFT_1_15"
      }
    ],
    "enum": "RABBIT"
  },
  {
    "map": [
      {
        "id": 102,
        "version": "MINECRAFT_1_8"
      },
      {
        "id": 54,
        "version": "MINECRAFT_1_13"
      },
      {
        "id": 57,
        "version": "MINECRAFT_1_14"
      },
      {
        "id": 58,
        "version": "MINECRAFT_1_15"
      }
    ],
    "enum": "POLAR_BEAR"
  },
  {
    "map": [
      {
        "id": 103,
        "version": "MINECRAFT_1_11"
      },
      {
        "id": 36,
        "version": "MINECRAFT_1_13"
      },
      {
        "id": 38,
        "version": "MINECRAFT_1_14"
      },
      {
        "id": 39,
        "version": "MINECRAFT_1_15"
      }
    ],
    "enum": "LLAMA"
  },
  {
    "map": [
      {
        "id": 104,
        "version": "MINECRAFT_1_11"
      },
      {
        "id": 37,
        "version": "MINECRAFT_1_13"
      },
      {
        "id": 39,
        "version": "MINECRAFT_1_14"
      },
      {
        "id": 40,
        "version": "MINECRAFT_1_15"
      }
    ],
    "enum": "LLAMA_SPIT"
  },
  {
    "map": [
      {
        "id": 105,
        "version": "MINECRAFT_1_12"
      },
      {
        "id": 50,
        "version": "MINECRAFT_1_13"
      },
      {
        "id": 53,
        "version": "MINECRAFT_1_14"
      },
      {
        "id": 54,
        "version": "MINECRAFT_1_15"
      }
    ],
    "enum": "PARROT"
  },
  {
    "map": [
      {
        "id": 120,
        "version": "MINECRAFT_1_8"
      },
      {
        "id": 79,
        "version": "MINECRAFT_1_13"
      },
      {
        "id": 84,
        "version": "MINECRAFT_1_14"
      },
      {
        "id": 85,
        "version": "MINECRAFT_1_15"
      }
    ],
    "enum": "VILLAGER"
  },
  {
    "map": [
      {
        "id": 200,
        "version": "MINECRAFT_1_8"
      },
      {
        "id": 16,
        "version": "MINECRAFT_1_13"
      },
      {
        "id": 17,
        "version": "MINECRAFT_1_14"
      },
      {
        "id": 18,
        "version": "MINECRAFT_1_15"
      }
    ],
    "enum": "ENDER_CRYSTAL"
  }
]