[
  {
    "map": [
      {
        "id": 2,
        "version": "MINECRAFT_1_8"
      },
      {
        "id": 34,
        "version": "MINECRAFT_1_14"
      }
    ],
    "enum": "ITEM"
  },
  {
    "map": [
      {
        "id": 3,
        "version": "MINECRAFT_1_8"
      },
      {
        "id": 0,
        "version": "MINECRAFT_1_14"
      }
    ],
    "enum": "AREA_EFFECT_CLOUD"
  },
  {
    "map": [
      {
        "id": 62,
        "version": "MINECRAFT_1_8"
      },
      {
        "id": 74,
        "version": "MINECRAFT_1_14"
      }
    ],
    "enum": "THROWN_EGG"
  },
  {
    "map": [
      {
        "id": 77,
        "version": "MINECRAFT_1_8"
      },
      {
        "id": 35,
        "version": "MINECRAFT_1_14"
      }
    ],
    "enum": "LEASH_KNOT"
  },
  {
    "map": [
      {
        "id": 60,
        "version": "MINECRAFT_1_8"
      },
      {
        "id": 2,
        "version": "MINECRAFT_1_14"
      }
    ],
    "enum": "ARROW"
  },
  {
    "map": [
      {
        "id": 61,
        "version": "MINECRAFT_1_8"
      },
      {
        "id": 67,
        "version": "MINECRAFT_1_14"
      }
    ],
    "enum": "SNOWBALL"
  },
  {
    "map": [
      {
        "id": 63,
        "version": "MINECRAFT_1_8"
      },
      {
        "id": 34,
        "version": "MINECRAFT_1_14"
      }
    ],
    "enum": "FIREBALL"
  },
  {
    "map": [
      {
        "id": 64,
        "version": "MINECRAFT_1_8"
      },
      {
        "id": 65,
        "version": "MINECRAFT_1_14"
      }
    ],
    "enum": "SMALL_FIREBALL"
  },
  {
    "map": [
      {
        "id": 65,
        "version": "MINECRAFT_1_8"
      },
      {
        "id": 75,
        "version": "MINECRAFT_1_14"
      }
    ],
    "enum": "THROWN_ENDERPEARL"
  },
  {
    "map": [
      {
        "id": 72,
        "version": "MINECRAFT_1_8"
      },
      {
        "id": 23,
        "version": "MINECRAFT_1_14"
      }
    ],
    "enum": "EYE_OF_ENDER"
  },
  {
    "map": [
      {
        "id": 73,
        "version": "MINECRAFT_1_8"
      },
      {
        "id": 77,
        "version": "MINECRAFT_1_14"
      }
    ],
    "enum": "THROWN_POTION"
  },
  {
    "map": [
      {
        "id": 75,
        "version": "MINECRAFT_1_8"
      },
      {
        "id": 76,
        "version": "MINECRAFT_1_14"
      }
    ],
    "enum": "THROWN_EXP_BOTTLE"
  },
  {
    "map": [
      {
        "id": 71,
        "version": "MINECRAFT_1_8"
      },
      {
        "id": 33,
        "version": "MINECRAFT_1_14"
      }
    ],
    "enum": "ITEM_FRAME"
  },
  {
    "map": [
      {
        "id": 66,
        "version": "MINECRAFT_1_8"
      },
      {
        "id": 85,
        "version": "MINECRAFT_1_14"
      }
    ],
    "enum": "WITHER_SKULL"
  },
  {
    "map": [
      {
        "id": 50,
        "version": "MINECRAFT_1_8"
      },
      {
        "id": 55,
        "version": "MINECRAFT_1_14"
      }
    ],
    "enum": "PRIMED_TNT"
  },
  {
    "map": [
      {
        "id": 70,
        "version": "MINECRAFT_1_8"
      },
      {
        "id": 24,
        "version": "MINECRAFT_1_14"
      }
    ],
    "enum": "FALLING_BLOCK"
  },
  {
    "map": [
      {
        "id": 76,
        "version": "MINECRAFT_1_8"
      },
      {
        "id": 25,
        "version": "MINECRAFT_1_14"
      }
    ],
    "enum": "FIREWORK_ROCKET"
  },
  {
    "map": [
      {
        "id": 91,
        "version": "MINECRAFT_1_8"
      },
      {
        "id": 68,
        "version": "MINECRAFT_1_14"
      }
    ],
    "enum": "SPECTRAL_ARROW"
  },
  {
    "map": [
      {
        "id": 67,
        "version": "MINECRAFT_1_8"
      },
      {
        "id": 60,
        "version": "MINECRAFT_1_14"
      }
    ],
    "enum": "SHULKER_BULLET"
  },
  {
    "map": [
      {
        "id": 93,
        "version": "MINECRAFT_1_8"
      },
      {
        "id": 13,
        "version": "MINECRAFT_1_14"
      }
    ],
    "enum": "DRAGON_FIREBALL"
  },
  {
    "map": [
      {
        "id": 78,
        "version": "MINECRAFT_1_8"
      },
      {
        "id": 1,
        "version": "MINECRAFT_1_14"
      }
    ],
    "enum": "ARMOR_STAND"
  },
  {
    "map": [
      {
        "id": 79,
        "version": "MINECRAFT_1_11"
      },
      {
        "id": 20,
        "version": "MINECRAFT_1_14"
      }
    ],
    "enum": "EVOCATION_FANGS"
  },
  {
    "map": [
      {
        "id": 10,
        "version": "MINECRAFT_1_8"
      },
      {
        "id": 41,
        "version": "MINECRAFT_1_14"
      }
    ],
    "enum": "MINECART_COMMAND_BLOCK"
  },
  {
    "map": [
      {
        "id": 1,
        "version": "MINECRAFT_1_8"
      },
      {
        "id": 5,
        "version": "MINECRAFT_1_14"
      }
    ],
    "enum": "BOAT"
  },
  {
    "map": [
      {
        "id": 10,
        "version": "MINECRAFT_1_8"
      },
      {
        "id": 39,
        "version": "MINECRAFT_1_14"
      }
    ],
    "enum": "MINECART_RIDEABLE"
  },
  {
    "map": [
      {
        "id": 10,
        "version": "MINECRAFT_1_8"
      },
      {
        "id": 40,
        "version": "MINECRAFT_1_14"
      }
    ],
    "enum": "MINECART_CHEST"
  },
  {
    "map": [
      {
        "id": 10,
        "version": "MINECRAFT_1_8"
      },
      {
        "id": 42,
        "version": "MINECRAFT_1_14"
      }
    ],
    "enum": "MINECART_FURNACE"
  },
  {
    "map": [
      {
        "id": 10,
        "version": "MINECRAFT_1_8"
      },
      {
        "id": 45,
        "version": "MINECRAFT_1_14"
      }
    ],
    "enum": "MINECART_TNT"
  },
  {
    "map": [
      {
        "id": 10,
        "version": "MINECRAFT_1_8"
      },
      {
        "id": 43,
        "version": "MINECRAFT_1_14"
      }
    ],
    "enum": "MINECART_HOPPER"
  },
  {
    "map": [
      {
        "id": 10,
        "version": "MINECRAFT_1_8"
      },
      {
        "id": 44,
        "version": "MINECRAFT_1_14"
      }
    ],
    "enum": "MINECART_SPAWNER"
  },
  {
    "map": [
      {
        "id": 68,
        "version": "MINECRAFT_1_11"
      },
      {
        "id": 37,
        "version": "MINECRAFT_1_14"
      }
    ],
    "enum": "LLAMA_SPIT"
  },
  {
    "map": [
      {
        "id": 51,
        "version": "MINECRAFT_1_8"
      },
      {
        "id": 16,
        "version": "MINECRAFT_1_14"
      }
    ],
    "enum": "ENDER_CRYSTAL"
  },
  {
    "map": [
      {
        "id": 90,
        "version": "MINECRAFT_1_8"
      }
    ],
    "enum": "FISHING_HOOK"
  }
]